Line 16: Class PDQComm of control Comm was not a loaded control class.
Line 18: The property name AutoZModem in Comm is invalid.
Line 20: The property name Columns in Comm is invalid.
Line 21: The property name Echo in Comm is invalid.
Line 22: The property name FastScroll in Comm is invalid.
Line 25: The property name InBufferSize in Comm is invalid.
Line 26: The property name Interval in Comm is invalid.
Line 27: The property name KeyTranslation in Comm is invalid.
Line 29: The property name Notification in Comm is invalid.
Line 30: The property name OutBufferSize in Comm is invalid.
Line 31: The property name Rows in Comm is invalid.
Line 32: The property name RTSEnable in Comm is invalid.
Line 33: The property name ScrollRows in Comm is invalid.
Line 34: The property name SmoothScroll in Comm is invalid.
Line 37: The property name XferCarrierAbort in Comm is invalid.
