Line 17: Class SSCommand of control SSCommand1 was not a loaded control class.
Line 25: Class SSOption of control SSOption2 was not a loaded control class.
Line 35: Class SSOption of control SSOption1 was not a loaded control class.
Line 18: The property name Caption in SSCommand1 is invalid.
Line 26: The property name Caption in SSOption2 is invalid.
Line 36: The property name Caption in SSOption1 is invalid.
Line 41: The property name Value in SSOption1 is invalid.
