

"Q-1"	""
"Q-2"	""
"Q-3"	""
"Q-4"	""
"Q-5"	""
"Q-6"	""
"Q-7"	""
"Q-8"	""
"Q-9"	""
"Q-10"	""
"Q-11"	""
"Q-12"	""
"Q-13"	""
"Q-14"	""
"Q-15"	""
"Q-16"	""
"Q-17"	""
"Q-18"	""
"Q-19"	""
"Q-20"	""
"Q-21"	""
"Q-22"	""
"Q-23"	""
"Q-24"	""
"Q-25"	""
"Q-26"	""
"Q-27"	""
"Q-28"	""
"Q-29"	""
"Q-30"	""
"Q-31"	""
"Q-32"	""

""	"D1"	
"R1"	1.65	
"R2"	2.17	
"R3"	2.00	
"R4"	1.98	
"R5"	1.86	
"R6"	1.69	
"R7"	1.74	
"R8"	2.05	
"R9"	2.13	
"R10"	1.97	
"R11"	2.00	
"R12"	1.98	
"R13"	2.17	
"R14"	1.83	
"R15"	1.93	
"R16"	1.68	
"R17"	2.08	
"R18"	1.69	
"R19"	1.93	
"R20"	1.65	
"R21"	1.90	
"R22"	1.82	
"R23"	1.92	
"R24"	1.84	
"R25"	1.85	
"R26"	2.03	
"R27"	1.86	
"R28"	1.74	
"R29"	1.76	
"R30"	1.98	
"R31"	1.84	
"R32"	1.93	
"R33"	1.78	
"R34"	1.80	
"R35"	1.70	
"R36"	1.81	
"R37"	1.84	
"R38"	1.82	
"R39"	1.85	
"R40"	1.91	
"R41"	2.06	
"R42"	2.05	
"R43"	1.81	
"R44"	1.86	
"R45"	1.73	
"R46"	1.76	
"R47"	1.74	
"R48"	1.81	
"R49"	1.79	
"R50"	1.78	
"R51"	1.80	
"R52"	1.71	
"R53"	1.90	
"R54"	1.91	
"R55"	2.01	
"R56"	1.90	
"R57"	1.90	
"R58"	1.87	
"R59"	1.65	
"R60"	1.61	
"R61"	1.56	
"R62"	1.59	
"R63"	1.66	
"R64"	1.60	
"R65"	1.98	
"R66"	1.64	
"R67"	1.79	
"R68"	2.00	
"R69"	1.80	
"R70"	1.84	
"R71"	2.06	
"R72"	1.96	
"R73"	1.90	
"R74"	1.99	
"R75"	2.11	
"R76"	1.92	
"R77"	2.00	
"R78"	1.98	
"R79"	2.00	
"R80"	1.99	
"R81"	1.99	
"R82"	1.57	
"R83"	1.76	
"R84"	1.81	
"R85"	2.08	
"R86"	1.83	
"R87"	1.81	
"R88"	1.73	
"R89"	1.78	
"R90"	1.73	
"R91"	1.94	
"R92"	2.12	
"R93"	1.76	
"R94"	1.76	
"R95"	1.81	
"R96"	1.96	
"R97"	1.86	
"R98"	2.07	
"R99"	2.03	
