:20020000E0EBB63CAAA200000000EA6E8D37F03703000300E01A261B00000000C0C8BAC748
:200220004264B0214015B2D5C2483AFB0000000000000000C103B64641A00000410C28F620
:2002400042400000C08872B047D3300047F8C60048132600482DCB0047AFB4004179999A0B
:20026000410CCCCDDC051E006CFAF93FBFCAACBAFC9E7E3A6BAEAC96BABAB48BA6D36B2A9E
:20028000AEAFBA9A8EA2A2203EAEA2B3A62B62A5A56B7E942BA8EA2EFA8AAABC6FA02E90DE
:2002A000BEEEB0BBC5E6EEB686EEA2840C2EB0BEF8DAF6B8EFAFFAAB9A0A0A1D8AF3A8B92A
:2002C000B2883EFBAEE8BCAAB9AEFA05301A8F36DBE29E1EAAAAE9BBBCA8AA85CCC0E28B3D
:2002E0009BAEEDB4A2CBF9AD82E4CA8FBEB31F0B72EA3839A52AE6BFEF7BAA95FE2E8E8380
:2003000000000000C3F6CE00000000000000000000000000800000000000000000000000D6
:20032000000000000000000000000000000000002CA7ED8DFDAADC6ABBEBF95197AFDDEB85
:2003400089BE8BC88AAE27CA4A62AE0C62A6A462B6AAE2AE8AE62A2AE4A2AA4CE2AA2E2A52
:20036000AEAA2EA8A2ECAAAEEA48CE624EE2E8E8E288EAE6AECEEAECAAAAACC40AC82E2295
:20038000AC468AAAECAEC8EEAACCEEA0ACE6AEECEAA8CEECAAEA8AAECAAA8F64CAE6EAC4DA
:2003A000AAAAAAA6AAEEAA0EEAA88A8EEA2E6E8EAAA86AAA8A2220AAAA686AC20E6C2E8E3B
:2003C000A0AA42E4C62848AAEEAEAEC48CC2EE802AC64A08AE2AA0AA28EEAACE02A8AA2A93
:2003E000CA88AC48AAA0A2A2AEAAAE2C888A0AA224EECA82A82AE28AA06CE2666A8EA0A60B
:20040000ACAA6AAAAAA22EA6E28A2CC8AA8E8CEA8E8EEC0E6EE42882EA6AEA8EA0E2EEAE48
:20042000EA8CAAEAE68A0A88A6EAEA62A8AAEC2CE62EEA2C2AEAE6AAACA6ACC4EEAACE680C
:20044000E888EE00220AAAAAAAAA4C99BFFAAFA22EBAAEDBBAFAAABFE2EE2A7DA06A0BBBA6
:20046000BBEF48DA2BA5EAA0AB9BBA50AE2A2BEBC832AE8AA3BAFF51EFEFDAC8E3A2297A91
:20048000AC5EACA8AABA2E9EEBA9FA1D260AEA2FAAAEFF602BEADBA3AACAE255CF9E1F0A4F
:2004A0000ACBAA596C7A6EBEAA9A210CC6A8EEB3AFAE2EE632EE6B2EFAA2FE5DB3EB82EBA6
:2004C0004BFD2EEA4A8A8BEFF98AAEB3B09AAAE29EEB0BACA208E815CED8FEE9AD3A8C7C51
:2004E00092BC86617D88ABEA0BEEDA412FAACEA2389B720A6F88EB38BABAABB6FF232BAA9B
:2005000036054D454D4F525900680543616C00120043414D008B054C494D49545300AD0553
:20052000554E49545300CA05434F4E46494700FFFF6520000000000565204D454D000A00AD
:200540004F4E2F4F4646000B00434C454152000C00537461747573000D005052494E540058
:200560000E005461670000000005652043616C000F00322050545300100031205054001149
:2005800000466163746F7279000000000565204C494D0013004F66660014004F6E00150003
:2005A0004C6F770016004869676800000000056520554E4954530017004D696C7300180092
:2005C0004D6963726F6E7300000000056520434E4600190044617465001A0054696D65009F
:2005E0001B005052494E544552001C00466163746F7279001D0053657269616C204E756DFB
:20060000626572001E0056657273696F6E0000001F00466C616773002000534E756D626527
:2006200072002100466572726F75730022004E6F6E466572726F757300000545786974006F
:2006400000002028292A2B2D2F303132333435363738393C3D3E4041424344454647484907
:200660004A4B4C4D4E4F505152535455565758595A002F0030313233343536373839000AC2
:20068000000157414954004F464600455849540043414D20257300414C4C004E4F4E45007D
:2006A0002563256300434F4D504C45544500524F575300434F4C53005573656420257520EA
:2006C0006F662025750025632025732025642052656164696E677320256420526F777320C1
:2006E000256420436F6C73004C4F574C004849204C0001303020504C415445004D4F52455B
:200700002F53454C0001572F205348494D0041444A430042415443482046554C4C0025738F
:200720002D002025632564202000256420202000C3256420202000C1522564202020004D3D
:20074000454D2046554C4C0054454D504C415445004E4F4E452F455849540001546F756323
:200760006800546F6F20536D616C6C00014C6966740001444F4E4500014C6966742050729D
:200780006F62650043414C20004D494E20004D41582000408000004100000043C8000041DC
:2007A00080000042A0000041228F5E40182CB8464C4700534E554D00464552524F55532CDD
:2007C0004E4F4E464552524F55532C424F54482C4558495400464552524F55532C45584911
:1F07E00054004E4F4E464552524F55532C4558495400A08A80808058A080808085200068
:200BD000967896780164B40000003214321400FA1EFA1E016446644600FA46FA4600FAB491
:0D0BF000FAB400FA14FA28010BB40000005A
:00000001FF
