:200500002A0543616C000D00454F4D000E0043414D004D05554E495453006A05434F4E4655
:20052000494700FFFF65200000000005652043616C000A003220505453000B0031205054BB
:20054000000C00466163746F727900000000056520554E495453000F004D696C73001000E6
:200560004D6963726F6E7300000000056520434E46001100466163746F727900120053658C
:200580007269616C204E756D62657200130056657273696F6E0000001400466C6167730030
:2005A0001500534E756D626572001600466572726F75730017004E6F6E466572726F757346
:2005C00000180042656E6368000005457869740000002028292A2B2D2F30313233343536FD
:2005E0003738393C3D3E404142434445464748494A4B4C4D4E4F50515253545556575859D7
:200600005A002F0030313233343536373839000A000157414954004F4646004558495400EF
:2006200043414D20257300454F4D20257300414C4C004F4646004E4F4E45002563256300A4
:20064000434F4D504C45544500524F575300434F4C530055736564202575206F66202575CB
:200660000025632025732025642052656164696E677320256420526F777320256420436F55
:200680006C73004C4F574C004849204C0001303020504C415445004D4F52452F53454C0003
:2006A00001572F205348494D0041444A430042415443482046554C4C0025732D002025632E
:2006C0002564202000256420202000C3256420202000C1522564202020004D454D20465526
:2006E0004C4C0054454D504C415445004E4F4E452F455849540001546F75636800546F6F37
:2007000020536D616C6C00014C6966740001444F4E4500014C6966742050726F626500451C
:200720004F4D20004D20444F4E45004D455348202573005348494D2C4D4553480043414C2B
:2007400020004D494E20004D415820004080000043C800004180000042A0000041228F5EB1
:2007600040182CB8464552524F55532C4E4F4E464552524F55532C424F54482C455849541B
:2007800000464552524F55532C45584954004E4F4E464552524F55532C4558495400A08A2C
:2007A00080808045A0808080852000A08A8080804DA0808080852000A08A80808058A080D1
:1E07C00080808520004E462C5A2C412C492C542C4558495400464C4700534E554D0078
:200BD000967896780164B40000003214321400FA1EFA1E016446644600FA46FA4600FAB491
:0D0BF000FAB400FA14FA28010BB40000005A
:00000001FF
